Artists
…
# Question 2 : What is the overall distribution of artist types across different states or territories?

# Filter the data to include only the relevant columns
subset <- artist %>% select(state, type)
# Calculate the overall distribution
distribution <- subset %>% group_by(state, type) %>% summarise(count = n())

`summarise()` has grouped output by 'state'. You can override using the
`.groups` argument.

# Display the overall distribution
print(distribution)

# A tibble: 647 x 3
# Groups:   state [51]
   state   type                                       count
   <chr>   <chr>                                      <int>
 1 Alabama Actors                                         2
 2 Alabama Announcers                                     2
 3 Alabama Architects                                     2
 4 Alabama Dancers And Choreographers                     1
 5 Alabama Designers                                      5
 6 Alabama Entertainers                                   2
 7 Alabama Fine Artists, Art Directors, And Animators     3
 8 Alabama Landscape Architects                           1
 9 Alabama Music Directors And Composers                  2
10 Alabama Musicians                                      2
# i 637 more rows
…
